"Path","Platform","Compiled","Cooked","Permutations","Compiletime","CompiledDouble","CookedDouble"
"/ControlRig/Controls/ControlRigGizmoMaterial.ControlRigGizmoMaterial","0","0","4","1","0.000000","0","0"
"/Engine/EngineDebugMaterials/DebugEditorMaterial.DebugEditorMaterial","0","0","6","1","0.000000","0","0"
"/Engine/EngineMaterials/GizmoMaterial.GizmoMaterial","0","0","6","1","0.000000","0","0"
"/Engine/EngineDebugMaterials/DebugMeshMaterial.DebugMeshMaterial","0","0","9","1","0.000000","0","0"
"/Engine/EngineMaterials/RemoveSurfaceMaterial.RemoveSurfaceMaterial","0","0","4","1","0.000000","0","0"
"/HairStrands/Materials/HairMeshesDefaultMaterial.HairMeshesDefaultMaterial","0","0","63","1","0.000000","0","0"
"/HairStrands/Materials/HairCardsDefaultMaterial.HairCardsDefaultMaterial","0","0","104","1","0.000000","0","0"
"/HairStrands/Materials/HairDefaultMaterial.HairDefaultMaterial","0","0","63","1","0.000000","0","0"
"/Engine/EngineDebugMaterials/M_SimpleUnlitTranslucent.M_SimpleUnlitTranslucent","0","0","9","1","0.000000","0","0"
"/Engine/EditorMaterials/Camera/CineMat.CineMat","0","0","28","1","0.000000","0","0"
"/Engine/VREditor/TransformGizmo/Xray.Xray","0","0","14","1","0.000000","0","0"
"/Engine/VREditor/TransformGizmo/Main.Main","0","0","9","1","0.000000","0","0"
"/Engine/VREditor/TransformGizmo/TranslucentTransformGizmoMaterial.TranslucentTransformGizmoMaterial","0","0","9","1","0.000000","0","0"
"/Engine/EngineMaterials/DefaultLightFunctionMaterial.DefaultLightFunctionMaterial","0","0","43","1","0.000000","0","0"
"/Game/CSC/Materials/M_Select.M_Select","0","52","1","1","403.569031","0","496"
"/Game/CSC/Materials/M_RLV_Glass.M_RLV_Glass","0","52","6","1","387.009766","0","494"
"/Game/CSC/Maps/LevelContent/Architecture/M_1Meter_01.M_1Meter_01","0","24","7","1","68.149734","0","124"
"/Game/CSC/Demo/Materials/M_Bullet1.M_Bullet1","0","43","1","1","59.799038","0","947"
"/Game/CSC/Demo/Materials/M_Bullet.M_Bullet","0","43","1","1","58.585430","0","861"
"/Game/CSC/Materials/M_Tower.M_Tower","0","37","6","1","99.393867","0","610"
"/Game/CSC/Materials/M_Tank.M_Tank","0","37","1","1","96.634117","0","576"
"/Game/StarterContent/Particles/Materials/m_flare_01.m_flare_01","0","0","36","1","0.000000","0","0"
"/Engine/BasicShapes/BasicShapeMaterial.BasicShapeMaterial","0","0","84","1","0.000000","0","0"
"/Engine/MapTemplates/Materials/BasicAsset01.BasicAsset01","0","0","37","1","0.000000","0","0"
"/Engine/BufferVisualization/Opacity.Opacity","0","0","6","1","0.000000","0","0"
"/Engine/EngineMeshes/BackgroundMaterial.BackgroundMaterial","0","0","23","1","0.000000","0","0"
"/Engine/EditorMaterials/WidgetMaterial_X.WidgetMaterial_X","0","0","6","1","0.000000","0","0"
"/Engine/EditorMaterials/WidgetMaterial_Y.WidgetMaterial_Y","0","0","6","1","0.000000","0","0"
"/Engine/Tutorial/SubEditors/TutorialAssets/Character/TutorialTPP_Mat.TutorialTPP_Mat","0","0","28","1","0.000000","0","0"
"/Engine/EngineDebugMaterials/MAT_LevelColorationLitLightmapUV.MAT_LevelColorationLitLightmapUV","0","0","928","1","0.000000","0","0"
"/Engine/EngineMaterials/FlattenMaterial_WS_Normal_VT.FlattenMaterial_WS_Normal_VT","0","0","66","1","0.000000","0","0"
"/Engine/EngineMaterials/FlattenMaterial_VT.FlattenMaterial_VT","0","0","66","1","0.000000","0","0"
"/Engine/EngineMaterials/FlattenMaterial.FlattenMaterial","0","0","66","1","0.000000","0","0"
"/Engine/EngineMaterials/M_InvalidLightmapSettings.M_InvalidLightmapSettings","0","0","28","1","0.000000","0","0"
"/Engine/EngineMaterials/EmissiveMeshMaterial.EmissiveMeshMaterial","0","0","9","1","0.000000","0","0"
"/Engine/EngineDebugMaterials/M_VolumeRenderSphereTracePP.M_VolumeRenderSphereTracePP","0","0","6","1","0.000000","0","0"
"/Paper2D/DefaultSpriteMaterial.DefaultSpriteMaterial","0","0","75","2","0.000000","0","0"
"/Engine/EngineMaterials/PhAT_JointLimitMaterial.PhAT_JointLimitMaterial","0","0","13","1","0.000000","0","0"
"/ControlRig/M_Manip.M_Manip","0","0","13","1","0.000000","0","0"
"/Engine/VREditor/TransformGizmo/TransformGizmoMaterial.TransformGizmoMaterial","0","0","4","1","0.000000","0","0"
"/Engine/EditorMaterials/WorldPartition/WorldPartitionSpatialHashGridPreviewMaterial.WorldPartitionSpatialHashGridPreviewMaterial","0","0","6","1","0.000000","0","0"
"/HairStrands/Materials/HairDebugMaterial.HairDebugMaterial","0","0","104","1","0.000000","0","0"
"/Engine/EngineSky/VolumetricClouds/m_SimpleVolumetricCloud.m_SimpleVolumetricCloud","0","0","56","1","0.000000","0","0"
"/Game/VigilanteContent/Shared/Map/Platform/Cylinder/Materials/M_Platform.M_Platform","0","23","1","1","59.660606","0","249"
"/Game/CSC/Materials/Mobile_materials/M_Tower_mobile.M_Tower_mobile","0","37","1","1","94.606277","0","568"
"/Game/CSC/Materials/Mobile_materials/M_Tank_mobile.M_Tank_mobile","0","37","1","1","95.419952","0","469"
"/Game/CSC/Materials/Mobile_materials/M_RLV_mobile.M_RLV_mobile","0","37","1","1","98.528130","0","322"
"/Game/CSC/Materials/Mobile_materials/M_CSC_mobile.M_CSC_mobile","0","37","1","1","96.880249","0","270"
"/Game/CSC/Materials/Mobile_materials/M_LGT_mobile.M_LGT_mobile","0","37","1","1","98.445328","0","230"
"/Game/CSC/Materials/Mobile_materials/M_CSC_GaussGun_mobile.M_CSC_GaussGun_mobile","0","37","1","1","98.483536","0","287"
"/Game/CSC/Materials/Mobile_materials/M_ACS18_mobile.M_ACS18_mobile","0","37","1","1","98.592575","0","266"
"/Game/CSC/Materials/M_TB1_Floor.M_TB1_Floor","0","37","1","1","97.262260","0","311"
"/Game/CSC/Materials/M_RLV.M_RLV","0","28","1","1","72.156494","0","210"
"/Game/CSC/Materials/Mobile_materials/M_LGT_Tracks_mobile.M_LGT_Tracks_mobile","0","37","1","1","95.591721","0","356"
"/Game/CSC/Materials/M_LGT_Tracks.M_LGT_Tracks","0","28","2","1","71.656929","0","224"
"/Game/CSC/Materials/M_LGT.M_LGT","0","28","1","1","71.107628","0","188"
"/Game/CSC/Materials/M_CSC_GaussGun.M_CSC_GaussGun","0","28","1","1","70.889259","0","212"
"/Game/CSC/Materials/M_ACS18.M_ACS18","0","28","2","1","70.306694","0","180"
"/Game/CSC/Materials/M_CSC.M_CSC","0","28","1","1","71.829849","0","206"
"/Game/CSC/Materials/M_TB1_Cube.M_TB1_Cube","0","37","1","1","94.964622","0","257"
"/Engine/EngineMaterials/DefaultPostProcessMaterial.DefaultPostProcessMaterial","0","0","10","1","0.000000","0","0"
"/Engine/EngineMaterials/DefaultDeferredDecalMaterial.DefaultDeferredDecalMaterial","0","0","101","1","0.000000","0","0"
"/Engine/EngineMaterials/DefaultMaterial.DefaultMaterial","0","0","167","1","0.000000","0","0"
"/Engine/EngineMaterials/WorldGridMaterial.WorldGridMaterial","0","0","1288","1","0.000000","0","0"
"/Engine/EditorMaterials/GridMaterial.GridMaterial","0","0","14","1","0.000000","0","0"
"/Engine/EngineMaterials/DefaultTextMaterialOpaque.DefaultTextMaterialOpaque","0","0","31","1","0.000000","0","0"
"/Engine/EngineMaterials/Widget3DPassThrough.Widget3DPassThrough","0","0","66","6","0.000000","0","9"
"/Game/CSC/Demo/Particles/Materials/M_smoke_subUV.M_smoke_subUV","0","72","1","1","154.902496","0","874"
"/Game/CSC/Demo/Particles/Materials/M_Fire_SubUV.M_Fire_SubUV","0","27","2","1","43.778290","0","171"
"/Game/CSC/Demo/Particles/Materials/M_explosion_subUV.M_explosion_subUV","0","27","2","1","42.125801","0","173"
"/Game/CSC/Demo/Particles/Materials/M_Burst.M_Burst","0","33","1","1","51.338894","0","221"
"/Game/CSC/Demo/Particles/Materials/M_radial_ramp.M_radial_ramp","0","36","7","1","55.411457","0","216"
"/Engine/EngineMaterials/PPM_DefaultCalibrationGrayscale.PPM_DefaultCalibrationGrayscale","0","0","6","1","0.000000","0","0"
"/Engine/EngineMaterials/PPM_DefaultCalibrationColor.PPM_DefaultCalibrationColor","0","0","6","1","0.000000","0","0"
"/Engine/EditorMaterials/PreviewShadowIndicatorMaterial.PreviewShadowIndicatorMaterial","0","0","43","1","0.000000","0","0"
"/Engine/EditorMaterials/PersonaFloorMat.PersonaFloorMat","0","0","23","1","0.000000","0","0"
"/Engine/MaterialTemplates/PerfTricks/M_SpecularUsingDiffuse.M_SpecularUsingDiffuse","0","0","14","1","0.000000","0","0"
"/Engine/EngineMaterials/CubeMaterial.CubeMaterial","0","0","8","1","0.000000","0","0"
"/Engine/Tutorial/SubEditors/TutorialAssets/M_smoke_subUV_blackbody.M_smoke_subUV_blackbody","0","0","27","1","0.000000","0","0"
"/SpeedTreeImporter/SpeedTree9/SpeedTreeBillboardMaster.SpeedTreeBillboardMaster","0","0","62","1","0.000000","0","0"
"/SpeedTreeImporter/SpeedTree9/SpeedTreeMaster.SpeedTreeMaster","0","0","88","1","0.000000","0","0"
